Fisheries landings for species with stock assessment
…
print(FIS_I)

## # A tibble: 591 x 17
##    rgn_id                  stock   2000   2001   2002  2003   2004   2005
##     <int>                  <chr>  <int>  <int>  <int> <int>  <int>  <int>
## 1      15               AGUJILLA      0      0    244  2395    364    233
## 2      15              ANCHOVETA 341095 121787 224272 53282 348047 193801
## 3      15     BACALADILLO O MOTE      0     15    502    40     54      1
## 4      15 BACALAO DE PROFUNDIDAD     11      1      0     0      0      0
## 5      15                 BONITO      0      0      0     0      0      0
## 6      15                CABALLA   2008  16102  34045 79920  18129   7879
## 7      15                CABINZA      0      0      0     2      0      0
## 8      15                CALAMAR      0      0      0     0      0      0
## 9      15   JIBIA O CALAMAR ROJO      0      0      9    10    506    364
## 10     15                  JUREL   8682  11908  13945 29185   9981  24634
## # ... with 581 more rows, and 9 more variables: 2006 <int>, 2007 <int>,
## #   2008 <int>, 2009 <int>, 2010 <int>, 2011 <int>, 2012 <int>,
## #   2013 <int>, 2014 <int>
…
print(FIS_A_S)

## # A tibble: 13,890 x 18
##    rgn_id CALETA                  stock  2000  2001  2002  2003   2004
##     <int>  <chr>                  <chr> <int> <int> <int> <int>  <int>
## 1      15  ARICA           ACHA O HACHA     0     0     0     0      0
## 2      15  ARICA               AGUJILLA     0     0     0     0     66
## 3      15  ARICA                 ALMEJA    15     5     1     3      1
## 4      15  ARICA              ANCHOVETA 33863 41211 76970 74813 110434
## 5      15  ARICA                ANGUILA     2     0     0     0      0
## 6      15  ARICA             APA<d1>ADO     0     1     0     0      0
## 7      15  ARICA                AYANQUE    15    13    42    39     51
## 8      15  ARICA                AZULEJO     2     3     3     5      3
## 9      15  ARICA     BACALADILLO O MOTE     0     0  2504   461    435
## 10     15  ARICA BACALAO DE PROFUNDIDAD   184    97   101    13     18
## # ... with 13,880 more rows, and 10 more variables: 2005 <int>,
## #   2006 <int>, 2007 <int>, 2008 <int>, 2009 <int>, 2010 <int>,
## #   2011 <int>, 2012 <int>, 2013 <int>, 2014 <int>
…
## The following objects are masked from 'package:base':
## 
##     intersect, setdiff, setequal, union

library(ggplot2)

#Industrial landings tidy 

FIS_I <- gather(FIS_I, "year", "landings", 3:17)

FIS_industry <- FIS_I  %>%                               #include only species with stock assessment 
  filter(stock %in% c('ANCHOVETA', 'BACALAO DE PROFUNDIDAD', 'CAMARON NAILON', 'CONGRIO DORADO', 'JUREL', 'LANGOSTINO AMARILLO', 'LANGOSTINO COLORADO', 'MERLUZA COMUN', 'MERLUZA DE COLA', 'MERLUZA DEL SUR O AUSTRAL', 'MERLUZA DE TRES ALETAS', 'ALBACORA O PEZ ESPADA', 'SARDINA COMUN', 'RAYA VOLANTIN')) 
print(FIS_industry)

## # A tibble: 2,925 x 4
##    rgn_id                  stock  year landings
##     <int>                  <chr> <chr>    <int>
## 1      15              ANCHOVETA  2000   341095
## 2      15 BACALAO DE PROFUNDIDAD  2000       11
## 3      15                  JUREL  2000     8682
## 4       1  ALBACORA O PEZ ESPADA  2000        0
## 5       1              ANCHOVETA  2000   557573
## 6       1 BACALAO DE PROFUNDIDAD  2000        0
## 7       1         CAMARON NAILON  2000       11
## 8       1                  JUREL  2000    70365
## 9       1    LANGOSTINO COLORADO  2000        0
## 10      1          SARDINA COMUN  2000        0
## # ... with 2,915 more rows

write_csv(FIS_industry, "FIS_industry.csv")

#Artisanal + Ship Owner landings tidy 

FIS_A_S <- gather(FIS_A_S, "year", "landings", 4:18)
print(FIS_A_S) # is giving year as chr

## # A tibble: 208,350 x 5
##    rgn_id CALETA                  stock  year landings
##     <int>  <chr>                  <chr> <chr>    <int>
## 1      15  ARICA           ACHA O HACHA  2000        0
## 2      15  ARICA               AGUJILLA  2000        0
## 3      15  ARICA                 ALMEJA  2000       15
## 4      15  ARICA              ANCHOVETA  2000    33863
## 5      15  ARICA                ANGUILA  2000        2
## 6      15  ARICA             APA<d1>ADO  2000        0
## 7      15  ARICA                AYANQUE  2000       15
## 8      15  ARICA                AZULEJO  2000        2
## 9      15  ARICA     BACALADILLO O MOTE  2000        0
## 10     15  ARICA BACALAO DE PROFUNDIDAD  2000      184
## # ... with 208,340 more rows

FIS_Artisanal_ShipOwner <- FIS_A_S  %>%                               #include only species with stock assessment 
  select(rgn_id, stock, year, landings) %>%                           # Select columns by name
  filter(stock %in% c('ANCHOVETA', 'BACALAO DE PROFUNDIDAD', 'CAMARON NAILON', 'CONGRIO DORADO', 'JUREL', 'LANGOSTINO AMARILLO', 'LANGOSTINO COLORADO', 'MERLUZA COMUN', 'MERLUZA DE COLA', 'MERLUZA DEL SUR O AUSTRAL', 'MERLUZA DE TRES ALETAS', 'ALBACORA O PEZ ESPADA', 'SARDINA COMUN', 'RAYA VOLANTIN', 'SARDINA AUSTRAL')) 
print(FIS_Artisanal_ShipOwner)

## # A tibble: 24,780 x 4
##    rgn_id                  stock  year landings
##     <int>                  <chr> <chr>    <int>
## 1      15              ANCHOVETA  2000    33863
## 2      15 BACALAO DE PROFUNDIDAD  2000      184
## 3      15         CONGRIO DORADO  2000        0
## 4      15                  JUREL  2000      172
## 5      15          MERLUZA COMUN  2000        0
## 6      15          SARDINA COMUN  2000        0
## 7       1  ALBACORA O PEZ ESPADA  2000        0
## 8       1 BACALAO DE PROFUNDIDAD  2000        9
## 9       1         CONGRIO DORADO  2000        0
## 10      1                  JUREL  2000        0
## # ... with 24,770 more rows
…
